%YAML 1.1
%TAG !u! tag:unity3d.com,2011:
--- !u!1 &1486605940041638472
GameObject:
  m_ObjectHideFlags: 0
  m_CorrespondingSourceObject: {fileID: 0}
  m_PrefabInstance: {fileID: 0}
  m_PrefabAsset: {fileID: 0}
  serializedVersion: 6
  m_Component:
  - component: {fileID: 1486605940041638479}
  - component: {fileID: 1486605940041638478}
  m_Layer: 0
  m_Name: AudioController
  m_TagString: Untagged
  m_Icon: {fileID: 0}
  m_NavMeshLayer: 0
  m_StaticEditorFlags: 0
  m_IsActive: 1
--- !u!4 &1486605940041638479
Transform:
  m_ObjectHideFlags: 0
  m_CorrespondingSourceObject: {fileID: 0}
  m_PrefabInstance: {fileID: 0}
  m_PrefabAsset: {fileID: 0}
  m_GameObject: {fileID: 1486605940041638472}
  m_LocalRotation: {x: 0, y: 0, z: 0, w: 1}
  m_LocalPosition: {x: 0, y: 0, z: 0}
  m_LocalScale: {x: 1, y: 1, z: 1}
  m_Children: []
  m_Father: {fileID: 0}
  m_RootOrder: 0
  m_LocalEulerAnglesHint: {x: 0, y: 0, z: 0}
--- !u!114 &1486605940041638478
MonoBehaviour:
  m_ObjectHideFlags: 0
  m_CorrespondingSourceObject: {fileID: 0}
  m_PrefabInstance: {fileID: 0}
  m_PrefabAsset: {fileID: 0}
  m_GameObject: {fileID: 1486605940041638472}
  m_Enabled: 1
  m_EditorHideFlags: 0
  m_Script: {fileID: 11500000, guid: 1669b0a062dc66842ab1bca41a93ebe4, type: 3}
  m_Name: 
  m_EditorClassIdentifier: 
  AudioObjectPrefab: {fileID: 100000, guid: 0c1c735ac5b98ad428f564386ebb50c9, type: 3}
  Persistent: 0
  UnloadAudioClipsOnDestroy: 0
  UsePooledAudioObjects: 1
  PlayWithZeroVolume: 0
  EqualPowerCrossfade: 0
  musicCrossFadeTime: 0
  ambienceSoundCrossFadeTime: 0
  specifyCrossFadeInAndOutSeperately: 0
  _musicCrossFadeTime_In: 0
  _musicCrossFadeTime_Out: 0
  _ambienceSoundCrossFadeTime_In: 0
  _ambienceSoundCrossFadeTime_Out: 0
  AudioCategories:
  - Name: Sound
    _parentCategoryName: 
    AudioObjectPrefab: {fileID: 0}
    AudioItems:
    - Name: BackGroundMusic
      Loop: 2
      loopSequenceCount: 0
      loopSequenceOverlap: 0
      loopSequenceRandomDelay: 0
      loopSequenceRandomPitch: 0
      loopSequenceRandomVolume: 0
      DestroyOnLoad: 1
      Volume: 1
      SubItemPickMode: 2
      MinTimeBetweenPlayCalls: 0.1
      MaxInstanceCount: 0
      Delay: 0
      PitchShift: 0
      RandomVolume: 0
      RandomPitch: 0
      RandomDelay: 0
      overrideAudioSourceSettings: 0
      audioSource_MinDistance: 1
      audioSource_MaxDistance: 500
      spatialBlend: 0
      subItems:
      - SubItemType: 0
        Probability: 1
        DisableOtherSubitems: 0
        ItemModeAudioID: 
        Clip: {fileID: 8300000, guid: ca264c9bcef79d94b92c52e4dec242e6, type: 3}
        Volume: 0.3
        PitchShift: 0
        Pan2D: 0
        Delay: 0
        RandomPitch: 0
        RandomVolume: 0
        RandomDelay: 0
        ClipStopTime: 0
        ClipStartTime: 0
        FadeIn: 0
        FadeOut: 0
        RandomStartPosition: 0
        individualSettings: []
    - Name: ButtonClick
      Loop: 0
      loopSequenceCount: 0
      loopSequenceOverlap: 0
      loopSequenceRandomDelay: 0
      loopSequenceRandomPitch: 0
      loopSequenceRandomVolume: 0
      DestroyOnLoad: 1
      Volume: 1
      SubItemPickMode: 2
      MinTimeBetweenPlayCalls: 0.1
      MaxInstanceCount: 0
      Delay: 0
      PitchShift: 0
      RandomVolume: 0
      RandomPitch: 0
      RandomDelay: 0
      overrideAudioSourceSettings: 0
      audioSource_MinDistance: 1
      audioSource_MaxDistance: 500
      spatialBlend: 0
      subItems:
      - SubItemType: 0
        Probability: 1
        DisableOtherSubitems: 0
        ItemModeAudioID: 
        Clip: {fileID: 8300000, guid: 032b4a58cc2f0f54d9adf2447afe5efe, type: 3}
        Volume: 1
        PitchShift: 0
        Pan2D: 0
        Delay: 0
        RandomPitch: 0
        RandomVolume: 0
        RandomDelay: 0
        ClipStopTime: 0
        ClipStartTime: 0
        FadeIn: 0
        FadeOut: 0
        RandomStartPosition: 0
        individualSettings: []
    - Name: GameStart
      Loop: 0
      loopSequenceCount: 0
      loopSequenceOverlap: 0
      loopSequenceRandomDelay: 0
      loopSequenceRandomPitch: 0
      loopSequenceRandomVolume: 0
      DestroyOnLoad: 1
      Volume: 1
      SubItemPickMode: 2
      MinTimeBetweenPlayCalls: 0.1
      MaxInstanceCount: 0
      Delay: 0
      PitchShift: 0
      RandomVolume: 0
      RandomPitch: 0
      RandomDelay: 0
      overrideAudioSourceSettings: 0
      audioSource_MinDistance: 1
      audioSource_MaxDistance: 500
      spatialBlend: 0
      subItems:
      - SubItemType: 0
        Probability: 1
        DisableOtherSubitems: 0
        ItemModeAudioID: 
        Clip: {fileID: 8300000, guid: 8bf58e453d58fc64bb28a506a99b3fef, type: 3}
        Volume: 1
        PitchShift: 0
        Pan2D: 0
        Delay: 0
        RandomPitch: 0
        RandomVolume: 0
        RandomDelay: 0
        ClipStopTime: 0
        ClipStartTime: 0
        FadeIn: 0
        FadeOut: 0
        RandomStartPosition: 0
        individualSettings: []
    - Name: GameLoose
      Loop: 0
      loopSequenceCount: 0
      loopSequenceOverlap: 0
      loopSequenceRandomDelay: 0
      loopSequenceRandomPitch: 0
      loopSequenceRandomVolume: 0
      DestroyOnLoad: 1
      Volume: 1
      SubItemPickMode: 2
      MinTimeBetweenPlayCalls: 0.1
      MaxInstanceCount: 0
      Delay: 0
      PitchShift: 0
      RandomVolume: 0
      RandomPitch: 0
      RandomDelay: 0
      overrideAudioSourceSettings: 0
      audioSource_MinDistance: 1
      audioSource_MaxDistance: 500
      spatialBlend: 0
      subItems:
      - SubItemType: 0
        Probability: 1
        DisableOtherSubitems: 0
        ItemModeAudioID: 
        Clip: {fileID: 8300000, guid: 535f849c5da2a2143bc31a55759a05c4, type: 3}
        Volume: 1
        PitchShift: 0
        Pan2D: 0
        Delay: 0
        RandomPitch: 0
        RandomVolume: 0
        RandomDelay: 0
        ClipStopTime: 0
        ClipStartTime: 0
        FadeIn: 0
        FadeOut: 0
        RandomStartPosition: 0
        individualSettings: []
    - Name: Destory
      Loop: 0
      loopSequenceCount: 0
      loopSequenceOverlap: 0
      loopSequenceRandomDelay: 0
      loopSequenceRandomPitch: 0
      loopSequenceRandomVolume: 0
      DestroyOnLoad: 1
      Volume: 1
      SubItemPickMode: 2
      MinTimeBetweenPlayCalls: 0.1
      MaxInstanceCount: 0
      Delay: 0
      PitchShift: 0
      RandomVolume: 0
      RandomPitch: 0
      RandomDelay: 0
      overrideAudioSourceSettings: 0
      audioSource_MinDistance: 1
      audioSource_MaxDistance: 500
      spatialBlend: 0
      subItems:
      - SubItemType: 0
        Probability: 1
        DisableOtherSubitems: 0
        ItemModeAudioID: 
        Clip: {fileID: 8300000, guid: f3857fbd16ea7944a926de08db591450, type: 3}
        Volume: 1
        PitchShift: 0
        Pan2D: 0
        Delay: 0
        RandomPitch: 0
        RandomVolume: 0
        RandomDelay: 0
        ClipStopTime: 0
        ClipStartTime: 0
        FadeIn: 0
        FadeOut: 0
        RandomStartPosition: 0
        individualSettings: []
    - Name: Drop
      Loop: 0
      loopSequenceCount: 0
      loopSequenceOverlap: 0
      loopSequenceRandomDelay: 0
      loopSequenceRandomPitch: 0
      loopSequenceRandomVolume: 0
      DestroyOnLoad: 1
      Volume: 1
      SubItemPickMode: 2
      MinTimeBetweenPlayCalls: 0.1
      MaxInstanceCount: 0
      Delay: 0
      PitchShift: 0
      RandomVolume: 0
      RandomPitch: 0
      RandomDelay: 0
      overrideAudioSourceSettings: 0
      audioSource_MinDistance: 1
      audioSource_MaxDistance: 500
      spatialBlend: 0
      subItems:
      - SubItemType: 0
        Probability: 1
        DisableOtherSubitems: 0
        ItemModeAudioID: 
        Clip: {fileID: 8300000, guid: 40941662ff728994e979b04800ab2768, type: 3}
        Volume: 1
        PitchShift: 0
        Pan2D: 0
        Delay: 0
        RandomPitch: 0
        RandomVolume: 0
        RandomDelay: 0
        ClipStopTime: 0
        ClipStartTime: 0
        FadeIn: 0
        FadeOut: 0
        RandomStartPosition: 0
        individualSettings: []
    - Name: Bomb
      Loop: 0
      loopSequenceCount: 0
      loopSequenceOverlap: 0
      loopSequenceRandomDelay: 0
      loopSequenceRandomPitch: 0
      loopSequenceRandomVolume: 0
      DestroyOnLoad: 1
      Volume: 1
      SubItemPickMode: 2
      MinTimeBetweenPlayCalls: 0.1
      MaxInstanceCount: 0
      Delay: 0
      PitchShift: 0
      RandomVolume: 0
      RandomPitch: 0
      RandomDelay: 0
      overrideAudioSourceSettings: 0
      audioSource_MinDistance: 1
      audioSource_MaxDistance: 500
      spatialBlend: 0
      subItems:
      - SubItemType: 0
        Probability: 1
        DisableOtherSubitems: 0
        ItemModeAudioID: 
        Clip: {fileID: 8300000, guid: 212cf2d8ab63f314584aa3ac3eaa3a9f, type: 3}
        Volume: 1
        PitchShift: 0
        Pan2D: 0
        Delay: 0
        RandomPitch: 0
        RandomVolume: 0
        RandomDelay: 0
        ClipStopTime: 0
        ClipStartTime: 0
        FadeIn: 0
        FadeOut: 0
        RandomStartPosition: 0
        individualSettings: []
    - Name: RainBow
      Loop: 0
      loopSequenceCount: 0
      loopSequenceOverlap: 0
      loopSequenceRandomDelay: 0
      loopSequenceRandomPitch: 0
      loopSequenceRandomVolume: 0
      DestroyOnLoad: 1
      Volume: 1
      SubItemPickMode: 2
      MinTimeBetweenPlayCalls: 0.1
      MaxInstanceCount: 0
      Delay: 0
      PitchShift: 0
      RandomVolume: 0
      RandomPitch: 0
      RandomDelay: 0
      overrideAudioSourceSettings: 0
      audioSource_MinDistance: 1
      audioSource_MaxDistance: 500
      spatialBlend: 0
      subItems:
      - SubItemType: 0
        Probability: 1
        DisableOtherSubitems: 0
        ItemModeAudioID: 
        Clip: {fileID: 8300000, guid: f094897832da621469faabe90ed8b603, type: 3}
        Volume: 1
        PitchShift: 0
        Pan2D: 0
        Delay: 0
        RandomPitch: 0
        RandomVolume: 0
        RandomDelay: 0
        ClipStopTime: 0
        ClipStartTime: 0
        FadeIn: 0
        FadeOut: 0
        RandomStartPosition: 0
        individualSettings: []
    - Name: Cool
      Loop: 0
      loopSequenceCount: 0
      loopSequenceOverlap: 0
      loopSequenceRandomDelay: 0
      loopSequenceRandomPitch: 0
      loopSequenceRandomVolume: 0
      DestroyOnLoad: 1
      Volume: 1
      SubItemPickMode: 2
      MinTimeBetweenPlayCalls: 0.1
      MaxInstanceCount: 0
      Delay: 0
      PitchShift: 0
      RandomVolume: 0
      RandomPitch: 0
      RandomDelay: 0
      overrideAudioSourceSettings: 0
      audioSource_MinDistance: 1
      audioSource_MaxDistance: 500
      spatialBlend: 0
      subItems:
      - SubItemType: 0
        Probability: 1
        DisableOtherSubitems: 0
        ItemModeAudioID: 
        Clip: {fileID: 8300000, guid: fb24f301266adc948a210764ff4ae291, type: 3}
        Volume: 1
        PitchShift: 0
        Pan2D: 0
        Delay: 0
        RandomPitch: 0
        RandomVolume: 0
        RandomDelay: 0
        ClipStopTime: 0
        ClipStartTime: 0
        FadeIn: 0
        FadeOut: 0
        RandomStartPosition: 0
        individualSettings: []
    - Name: Good
      Loop: 0
      loopSequenceCount: 0
      loopSequenceOverlap: 0
      loopSequenceRandomDelay: 0
      loopSequenceRandomPitch: 0
      loopSequenceRandomVolume: 0
      DestroyOnLoad: 1
      Volume: 1
      SubItemPickMode: 2
      MinTimeBetweenPlayCalls: 0.1
      MaxInstanceCount: 0
      Delay: 0
      PitchShift: 0
      RandomVolume: 0
      RandomPitch: 0
      RandomDelay: 0
      overrideAudioSourceSettings: 0
      audioSource_MinDistance: 1
      audioSource_MaxDistance: 500
      spatialBlend: 0
      subItems:
      - SubItemType: 0
        Probability: 1
        DisableOtherSubitems: 0
        ItemModeAudioID: 
        Clip: {fileID: 8300000, guid: e5f16e44f65f94e40848ab9f8981c816, type: 3}
        Volume: 1
        PitchShift: 0
        Pan2D: 0
        Delay: 0
        RandomPitch: 0
        RandomVolume: 0
        RandomDelay: 0
        ClipStopTime: 0
        ClipStartTime: 0
        FadeIn: 0
        FadeOut: 0
        RandomStartPosition: 0
        individualSettings: []
    - Name: Amazing
      Loop: 0
      loopSequenceCount: 0
      loopSequenceOverlap: 0
      loopSequenceRandomDelay: 0
      loopSequenceRandomPitch: 0
      loopSequenceRandomVolume: 0
      DestroyOnLoad: 1
      Volume: 1
      SubItemPickMode: 2
      MinTimeBetweenPlayCalls: 0.1
      MaxInstanceCount: 0
      Delay: 0
      PitchShift: 0
      RandomVolume: 0
      RandomPitch: 0
      RandomDelay: 0
      overrideAudioSourceSettings: 0
      audioSource_MinDistance: 1
      audioSource_MaxDistance: 500
      spatialBlend: 0
      subItems:
      - SubItemType: 0
        Probability: 1
        DisableOtherSubitems: 0
        ItemModeAudioID: 
        Clip: {fileID: 8300000, guid: b3ef34e8c410aaf49bdf4135f119649b, type: 3}
        Volume: 1
        PitchShift: 0
        Pan2D: 0
        Delay: 0
        RandomPitch: 0
        RandomVolume: 0
        RandomDelay: 0
        ClipStopTime: 0
        ClipStartTime: 0
        FadeIn: 0
        FadeOut: 0
        RandomStartPosition: 0
        individualSettings: []
    - Name: SpinWheelBG
      Loop: 0
      loopSequenceCount: 0
      loopSequenceOverlap: 0
      loopSequenceRandomDelay: 0
      loopSequenceRandomPitch: 0
      loopSequenceRandomVolume: 0
      DestroyOnLoad: 1
      Volume: 1
      SubItemPickMode: 2
      MinTimeBetweenPlayCalls: 0.1
      MaxInstanceCount: 0
      Delay: 0
      PitchShift: 0
      RandomVolume: 0
      RandomPitch: 0
      RandomDelay: 0
      overrideAudioSourceSettings: 0
      audioSource_MinDistance: 1
      audioSource_MaxDistance: 500
      spatialBlend: 0
      subItems:
      - SubItemType: 0
        Probability: 1
        DisableOtherSubitems: 0
        ItemModeAudioID: 
        Clip: {fileID: 8300000, guid: 0c717da2b7644e647abd795b02c8007e, type: 3}
        Volume: 1
        PitchShift: 0
        Pan2D: 0
        Delay: 0
        RandomPitch: 0
        RandomVolume: 0
        RandomDelay: 0
        ClipStopTime: 0
        ClipStartTime: 0
        FadeIn: 0
        FadeOut: 0
        RandomStartPosition: 0
        individualSettings: []
    - Name: SpinWheelReward
      Loop: 0
      loopSequenceCount: 0
      loopSequenceOverlap: 0
      loopSequenceRandomDelay: 0
      loopSequenceRandomPitch: 0
      loopSequenceRandomVolume: 0
      DestroyOnLoad: 1
      Volume: 1
      SubItemPickMode: 2
      MinTimeBetweenPlayCalls: 0.1
      MaxInstanceCount: 0
      Delay: 0
      PitchShift: 0
      RandomVolume: 0
      RandomPitch: 0
      RandomDelay: 0
      overrideAudioSourceSettings: 0
      audioSource_MinDistance: 1
      audioSource_MaxDistance: 500
      spatialBlend: 0
      subItems:
      - SubItemType: 0
        Probability: 1
        DisableOtherSubitems: 0
        ItemModeAudioID: 
        Clip: {fileID: 8300000, guid: 85f63f371a78b3242a195085e17e8c4a, type: 3}
        Volume: 1
        PitchShift: 0
        Pan2D: 0
        Delay: 0
        RandomPitch: 0
        RandomVolume: 0
        RandomDelay: 0
        ClipStopTime: 0
        ClipStartTime: 0
        FadeIn: 0
        FadeOut: 0
        RandomStartPosition: 0
        individualSettings: []
    - Name: SpinWheelRewardClime
      Loop: 0
      loopSequenceCount: 0
      loopSequenceOverlap: 0
      loopSequenceRandomDelay: 0
      loopSequenceRandomPitch: 0
      loopSequenceRandomVolume: 0
      DestroyOnLoad: 1
      Volume: 1
      SubItemPickMode: 2
      MinTimeBetweenPlayCalls: 0.1
      MaxInstanceCount: 0
      Delay: 0
      PitchShift: 0
      RandomVolume: 0
      RandomPitch: 0
      RandomDelay: 0
      overrideAudioSourceSettings: 0
      audioSource_MinDistance: 1
      audioSource_MaxDistance: 500
      spatialBlend: 0
      subItems:
      - SubItemType: 0
        Probability: 1
        DisableOtherSubitems: 0
        ItemModeAudioID: 
        Clip: {fileID: 8300000, guid: 49013f3ce04f2ed4b83d76e7715526a4, type: 3}
        Volume: 1
        PitchShift: 0
        Pan2D: 0
        Delay: 0
        RandomPitch: 0
        RandomVolume: 0
        RandomDelay: 0
        ClipStopTime: 0
        ClipStartTime: 0
        FadeIn: 0
        FadeOut: 0
        RandomStartPosition: 0
        individualSettings: []
    - Name: Halloween
      Loop: 0
      loopSequenceCount: 0
      loopSequenceOverlap: 0
      loopSequenceRandomDelay: 0
      loopSequenceRandomPitch: 0
      loopSequenceRandomVolume: 0
      DestroyOnLoad: 1
      Volume: 1
      SubItemPickMode: 2
      MinTimeBetweenPlayCalls: 0.1
      MaxInstanceCount: 0
      Delay: 0
      PitchShift: 0
      RandomVolume: 0
      RandomPitch: 0
      RandomDelay: 0
      overrideAudioSourceSettings: 0
      audioSource_MinDistance: 1
      audioSource_MaxDistance: 500
      spatialBlend: 0
      subItems:
      - SubItemType: 0
        Probability: 1
        DisableOtherSubitems: 0
        ItemModeAudioID: 
        Clip: {fileID: 8300000, guid: f6ae32f584c243c4892f84e7a208775f, type: 3}
        Volume: 1
        PitchShift: 0
        Pan2D: 0
        Delay: 0
        RandomPitch: 0
        RandomVolume: 0
        RandomDelay: 0
        ClipStopTime: 0
        ClipStartTime: 0
        FadeIn: 0
        FadeOut: 0
        RandomStartPosition: 0
        individualSettings: []
    - Name: Christmas
      Loop: 0
      loopSequenceCount: 0
      loopSequenceOverlap: 0
      loopSequenceRandomDelay: 0
      loopSequenceRandomPitch: 0
      loopSequenceRandomVolume: 0
      DestroyOnLoad: 1
      Volume: 1
      SubItemPickMode: 2
      MinTimeBetweenPlayCalls: 0.1
      MaxInstanceCount: 0
      Delay: 0
      PitchShift: 0
      RandomVolume: 0
      RandomPitch: 0
      RandomDelay: 0
      overrideAudioSourceSettings: 0
      audioSource_MinDistance: 1
      audioSource_MaxDistance: 500
      spatialBlend: 0
      subItems:
      - SubItemType: 0
        Probability: 1
        DisableOtherSubitems: 0
        ItemModeAudioID: 
        Clip: {fileID: 8300000, guid: 5c6c16063d06b1c4a944bac60073b825, type: 3}
        Volume: 1
        PitchShift: 0
        Pan2D: 0
        Delay: 0
        RandomPitch: 0
        RandomVolume: 0
        RandomDelay: 0
        ClipStopTime: 0
        ClipStartTime: 0
        FadeIn: 0
        FadeOut: 0
        RandomStartPosition: 0
        individualSettings: []
    - Name: Ester
      Loop: 0
      loopSequenceCount: 0
      loopSequenceOverlap: 0
      loopSequenceRandomDelay: 0
      loopSequenceRandomPitch: 0
      loopSequenceRandomVolume: 0
      DestroyOnLoad: 1
      Volume: 1
      SubItemPickMode: 2
      MinTimeBetweenPlayCalls: 0.1
      MaxInstanceCount: 0
      Delay: 0
      PitchShift: 0
      RandomVolume: 0
      RandomPitch: 0
      RandomDelay: 0
      overrideAudioSourceSettings: 0
      audioSource_MinDistance: 1
      audioSource_MaxDistance: 500
      spatialBlend: 0
      subItems:
      - SubItemType: 0
        Probability: 1
        DisableOtherSubitems: 0
        ItemModeAudioID: 
        Clip: {fileID: 8300000, guid: 914699b7f4c81a94fab8929588ad2121, type: 3}
        Volume: 1
        PitchShift: 0
        Pan2D: 0
        Delay: 0
        RandomPitch: 0
        RandomVolume: 0
        RandomDelay: 0
        ClipStopTime: 0
        ClipStartTime: 0
        FadeIn: 0
        FadeOut: 0
        RandomStartPosition: 0
        individualSettings: []
    _volume: 1
    audioMixerGroup: {fileID: 0}
  - Name: '!!! Enter Unique Category Name Here !!!'
    _parentCategoryName: 
    AudioObjectPrefab: {fileID: 0}
    AudioItems: []
    _volume: 1
    audioMixerGroup: {fileID: 0}
  musicPlaylists:
  - name: Default
    playlistItems: []
  musicPlaylist: []
  loopPlaylist: 0
  shufflePlaylist: 0
  crossfadePlaylist: 0
  delayBetweenPlaylistTracks: 1
  _isAdditionalAudioController: 0
  _audioDisabled: 0
  _volume: 1
  _currentInspectorSelection:
    currentCategoryIndex: 0
    currentItemIndex: 16
    currentSubitemIndex: 0
    currentPlaylistEntryIndex: 0
    currentPlaylistIndex: 0
